{
  "annotations": [
    {
      "label": "Container",
      "type": "polygon",
      "color": "hsla(329.41952402989097, 100%, 50%, 1)",
      "hidden": false,
      "points": [
        {
          "x": 23.92449760152758,
          "y": 221.55887754983235
        },
        {
          "x": 23.03427719821163,
          "y": 175.26776295873697
        },
        {
          "x": 23.256837392883753,
          "y": 159.68901796525708
        },
        {
          "x": 33.04918032786887,
          "y": 142.9975127491617
        },
        {
          "x": 46.40238450074516,
          "y": 134.76305042613637
        },
        {
          "x": 48.405365126676614,
          "y": 108.27918189968331
        },
        {
          "x": 47.96026511270494,
          "y": 99.82215938198584
        },
        {
          "x": 45.06706408345753,
          "y": 93.8132175041915
        },
        {
          "x": 43.50920384687035,
          "y": 88.471935835041
        },
        {
          "x": 28.375558867362148,
          "y": 87.13661541775336
        },
        {
          "x": 19.02831594634874,
          "y": 84.91107459714978
        },
        {
          "x": 12.796824061568568,
          "y": 83.35321436056259
        },
        {
          "x": 12.796824061568568,
          "y": 72.67064083457527
        },
        {
          "x": 15.467464896143827,
          "y": 71.33532041728763
        },
        {
          "x": 16.35767511177348,
          "y": 1.0084485027011976
        },
        {
          "x": 205.75063454731742,
          "y": 0.11822809938524692
        },
        {
          "x": 207.30849478390465,
          "y": 33.056138517604325
        },
        {
          "x": 207.0859549646051,
          "y": 60.43020707200074
        },
        {
          "x": 207.30849478390465,
          "y": 71.55787042427347
        },
        {
          "x": 209.97913561847992,
          "y": 73.11575103623323
        },
        {
          "x": 210.20171618852459,
          "y": 84.24341438850597
        },
        {
          "x": 207.53107535394935,
          "y": 86.69151540378166
        },
        {
          "x": 182.8276272587556,
          "y": 89.36215623835693
        },
        {
          "x": 181.49230684146795,
          "y": 96.03875832479508
        },
        {
          "x": 176.15102517231742,
          "y": 103.38302061987704
        },
        {
          "x": 176.15102517231742,
          "y": 106.05366145445231
        },
        {
          "x": 176.59612518628913,
          "y": 134.3179300367921
        },
        {
          "x": 178.37656599292103,
          "y": 138.99155149729881
        },
        {
          "x": 187.50124871926232,
          "y": 143.6651729578055
        },
        {
          "x": 193.7327507917288,
          "y": 149.4515750163003
        },
        {
          "x": 200.4093528781669,
          "y": 159.9115781599292
        },
        {
          "x": 200.63189269746647,
          "y": 180.60904462788747
        },
        {
          "x": 201.07701308681072,
          "y": 224.2295183844076
        },
        {
          "x": 23.701937406855457,
          "y": 224.00695818973546
        }
      ],
      "severity": null,
      "visibility": null,
      "selectedOnCanvas": false
    },
    {
      "label": "Container",
      "type": "polygon",
      "color": "hsla(336.2081734672733, 100%, 50%, 1)",
      "hidden": false,
      "points": [
        {
          "x": 224.44512038934425,
          "y": 91.36513686428837
        },
        {
          "x": 216.87831827496277,
          "y": 90.02981644700074
        },
        {
          "x": 213.0948968423994,
          "y": 88.471935835041
        },
        {
          "x": 212.20469681445604,
          "y": 86.02385519513786
        },
        {
          "x": 211.98211624441137,
          "y": 75.56383167613636
        },
        {
          "x": 214.2076774403875,
          "y": 75.7863918708085
        },
        {
          "x": 215.32041728763042,
          "y": 0.34078829405738276
        },
        {
          "x": 224,
          "y": 0.34078829405738276
        }
      ],
      "severity": null,
      "visibility": null,
      "selectedOnCanvas": false
    },
    {
      "label": "Neck",
      "type": "polygon",
      "color": "hsla(82.30734941442056, 100%, 50%, 1)",
      "hidden": false,
      "points": [
        {
          "x": 47.29260490406111,
          "y": 135.65325045407974
        },
        {
          "x": 32.15898029992548,
          "y": 150.56433523891582
        },
        {
          "x": 64.42921013412817,
          "y": 161.24689857721683
        },
        {
          "x": 194.17787118107304,
          "y": 152.78987605951937
        },
        {
          "x": 181.93740685543966,
          "y": 142.55241273519002
        },
        {
          "x": 173.48038433774218,
          "y": 137.8787912746833
        },
        {
          "x": 173.25782414307008,
          "y": 109.61450231697094
        },
        {
          "x": 59.08792846497765,
          "y": 105.83110125978017
        },
        {
          "x": 48.85048551602087,
          "y": 101.82514000791728
        }
      ],
      "severity": null,
      "visibility": null,
      "selectedOnCanvas": false
    },
    {
      "label": "Thread",
      "type": "polygon",
      "color": "hsla(161.9679444413006, 100%, 50%, 1)",
      "hidden": false,
      "points": [
        {
          "x": 44.39940387481373,
          "y": 88.91703584901266
        },
        {
          "x": 80.00795512760806,
          "y": 92.25533689223174
        },
        {
          "x": 110.05266451657975,
          "y": 91.81023687826006
        },
        {
          "x": 148.55439642324887,
          "y": 91.36513686428837
        },
        {
          "x": 182.3825272447839,
          "y": 89.1395960436848
        },
        {
          "x": 182.1599670501118,
          "y": 94.48087771283532
        },
        {
          "x": 177.26378539493294,
          "y": 102.71536041123323
        },
        {
          "x": 176.15102517231742,
          "y": 103.6055604391766
        },
        {
          "x": 175.92846497764532,
          "y": 108.50174209435545
        },
        {
          "x": 137.42673307097616,
          "y": 108.72430228902756
        },
        {
          "x": 86.23945720007453,
          "y": 106.05366145445231
        },
        {
          "x": 59.9781488682936,
          "y": 106.498761468424
        },
        {
          "x": 48.405365126676614,
          "y": 101.3800399939456
        }
      ],
      "severity": null,
      "visibility": null,
      "selectedOnCanvas": false
    }
  ],
  "image": {
	  "fileName": "0_1543413266626.bmp",
	  "height": 224,
	  "width": 224
  }
}